
=====
===== LOGGING STARTED Mon Nov 27 17:54:18 +05 2017
=====
Exec: /Users/raf/dev/erlychat/cowboyapp/_rel/cowboyapp_release/erts-9.1.5/bin/erlexec -boot /Users/raf/dev/erlychat/cowboyapp/_rel/cowboyapp_release/releases/1/cowboyapp_release -mode embedded -boot_var ERTS_LIB_DIR /Users/raf/dev/erlychat/cowboyapp/_rel/cowboyapp_release/lib -config /Users/raf/dev/erlychat/cowboyapp/_rel/cowboyapp_release/releases/1/sys.config -args_file /Users/raf/dev/erlychat/cowboyapp/_rel/cowboyapp_release/releases/1/vm.args -pa -- console
Root: /Users/raf/dev/erlychat/cowboyapp/_rel/cowboyapp_release
/Users/raf/dev/erlychat/cowboyapp/_rel/cowboyapp_release
heart_beat_kill_pid = 73541
Erlang/OTP 20 [erts-9.1.5] [source] [64-bit] [smp:8:8] [ds:8:8:10] [async-threads:10] [hipe] [kernel-poll:false] [dtrace]

/Users/raf/dev/erlychat/venv/lib/python2.7/site-packages/flask_sqlalchemy/__init__.py:794: FSADeprecationWarning: SQLALCHEMY_TRACK_MODIFICATIONS adds significant overhead and will be disabled by default in the future.  Set it to True or False to suppress this warning.
  'SQLALCHEMY_TRACK_MODIFICATIONS adds significant overhead and '

=PROGRESS REPORT==== 27-Nov-2017::17:54:18 ===
          supervisor: {local,sasl_safe_sup}
             started: [{pid,<0.585.0>},
                       {id,alarm_handler},
                       {mfargs,{alarm_handler,start_link,[]}},
                       {restart_type,permanent},
                       {shutdown,2000},
                       {child_type,worker}]

=PROGRESS REPORT==== 27-Nov-2017::17:54:18 ===
          supervisor: {local,sasl_sup}
             started: [{pid,<0.584.0>},
                       {id,sasl_safe_sup},
                       {mfargs,
                           {supervisor,start_link,
                               [{local,sasl_safe_sup},sasl,safe]}},
                       {restart_type,permanent},
                       {shutdown,infinity},
                       {child_type,supervisor}]

=PROGRESS REPORT==== 27-Nov-2017::17:54:18 ===
          supervisor: {local,sasl_sup}
             started: [{pid,<0.586.0>},
                       {id,release_handler},
                       {mfargs,{release_handler,start_link,[]}},
                       {restart_type,permanent},
                       {shutdown,2000},
                       {child_type,worker}]

=PROGRESS REPORT==== 27-Nov-2017::17:54:18 ===
         application: sasl
          started_at: 'cowboyapp@127.0.0.1'

=PROGRESS REPORT==== 27-Nov-2017::17:54:18 ===
          supervisor: {local,runtime_tools_sup}
             started: [{pid,<0.592.0>},
                       {id,ttb_autostart},
                       {mfargs,{ttb_autostart,start_link,[]}},
                       {restart_type,temporary},
                       {shutdown,3000},
                       {child_type,worker}]

=PROGRESS REPORT==== 27-Nov-2017::17:54:18 ===
         application: runtime_tools
          started_at: 'cowboyapp@127.0.0.1'
Eshell V9.1.5  (abort with ^G)
(cowboyapp@127.0.0.1)1> Process Process-1:
Traceback (most recent call last):
  File "/usr/local/Cellar/python/2.7.12_2/Frameworks/Python.framework/Versions/2.7/lib/python2.7/multiprocessing/process.py", line 258, in _bootstrap
    self.run()
  File "/usr/local/Cellar/python/2.7.12_2/Frameworks/Python.framework/Versions/2.7/lib/python2.7/multiprocessing/process.py", line 114, in run
    self._target(*self._args, **self._kwargs)
  File "/Users/raf/dev/erlychat/venv/lib/python2.7/site-packages/flask/app.py", line 841, in run
    run_simple(host, port, self, **options)
  File "/Users/raf/dev/erlychat/venv/lib/python2.7/site-packages/werkzeug/serving.py", line 739, in run_simple
    inner()
  File "/Users/raf/dev/erlychat/venv/lib/python2.7/site-packages/werkzeug/serving.py", line 699, in inner
    fd=fd)
  File "/Users/raf/dev/erlychat/venv/lib/python2.7/site-packages/werkzeug/serving.py", line 593, in make_server
    passthrough_errors, ssl_context, fd=fd)
  File "/Users/raf/dev/erlychat/venv/lib/python2.7/site-packages/werkzeug/serving.py", line 504, in __init__
    HTTPServer.__init__(self, (host, int(port)), handler)
  File "/usr/local/Cellar/python/2.7.12_2/Frameworks/Python.framework/Versions/2.7/lib/python2.7/SocketServer.py", line 417, in __init__
    self.server_bind()
  File "/usr/local/Cellar/python/2.7.12_2/Frameworks/Python.framework/Versions/2.7/lib/python2.7/BaseHTTPServer.py", line 108, in server_bind
    SocketServer.TCPServer.server_bind(self)
  File "/usr/local/Cellar/python/2.7.12_2/Frameworks/Python.framework/Versions/2.7/lib/python2.7/SocketServer.py", line 431, in server_bind
    self.socket.bind(self.server_address)
  File "/usr/local/Cellar/python/2.7.12_2/Frameworks/Python.framework/Versions/2.7/lib/python2.7/socket.py", line 228, in meth
    return getattr(self._sock,name)(*args)
error: [Errno 48] Address already in use

=PROGRESS REPORT==== 27-Nov-2017::17:54:25 ===
          supervisor: {local,inet_gethost_native_sup}
             started: [{pid,<0.601.0>},{mfa,{inet_gethost_native,init,[[]]}}]

=PROGRESS REPORT==== 27-Nov-2017::17:54:25 ===
          supervisor: {local,kernel_safe_sup}
             started: [{pid,<0.600.0>},
                       {id,inet_gethost_native_sup},
                       {mfargs,{inet_gethost_native,start_link,[]}},
                       {restart_type,temporary},
                       {shutdown,1000},
                       {child_type,worker}]

=====
===== LOGGING STARTED Mon Nov 27 13:22:29 GMT 2017
=====
Exec: /home/vagrant/dev/erlychat/cowboyapp/_rel/cowboyapp_release/erts-6.2/bin/erlexec -boot /home/vagrant/dev/erlychat/cowboyapp/_rel/cowboyapp_release/releases/1/cowboyapp_release -mode embedded -boot_var ERTS_LIB_DIR /home/vagrant/dev/erlychat/cowboyapp/_rel/cowboyapp_release/lib -config /home/vagrant/dev/erlychat/cowboyapp/_rel/cowboyapp_release/releases/1/sys.config -args_file /home/vagrant/dev/erlychat/cowboyapp/_rel/cowboyapp_release/releases/1/vm.args -pa -- console
Root: /home/vagrant/dev/erlychat/cowboyapp/_rel/cowboyapp_release
/home/vagrant/dev/erlychat/cowboyapp/_rel/cowboyapp_release
(no error logger present) error: "beam/beam_load.c(1161): Error loading module error_handler:
  mandatory chunk of type 'Atom' not found

"
{"init terminating in do_boot",{'cannot load',error_handler,get_files}}

Crash dump was written to: erl_crash.dump
init terminating in do_boot ()
